Biostat 203B Homework 4
…
Collapsing the levels of race into ASIAN, BLACK, HISPANIC, WHITE, and Other

Examining the Unique Entries of Race and their Count:

mimic_icu_cohort_2 %>%
  count(race, sort = TRUE)

# A tibble: 33 × 2
   race                               n
   <chr>                          <int>
 1 WHITE                          58888
 2 BLACK/AFRICAN AMERICAN          8677
 3 UNKNOWN                         8457
 4 OTHER                           3134
 5 WHITE - OTHER EUROPEAN          2310
 6 UNABLE TO OBTAIN                1881
 7 HISPANIC/LATINO - PUERTO RICAN  1214
 8 ASIAN                           1095
 9 ASIAN - CHINESE                 1062
10 WHITE - RUSSIAN                  980
# ℹ 23 more rows
…
