Biostat 203B Homework 5
…
  mutate(
    across(
      c(age_at_intime, heart_rate, non_invasive_blood_pressure_systolic,
        non_invasive_blood_pressure_diastolic, respiratory_rate, 
        temperature_fahrenheit, bicarbonate, glucose, potassium, sodium, 
        chloride, creatinine, hematocrit, wbc),
      ~ as.numeric(scale(.x))
    )
  )

mimiciv_icu_cohort

# A tibble: 94,444 × 22
   subject_id hadm_id stay_id los_long gender age_at_intime marital_status race 
        <int>   <int>   <int> <fct>    <fct>          <dbl> <fct>          <fct>
 1   10000032  2.91e7  3.96e7 0        F             -0.764 WIDOWED        WHITE
 2   10000690  2.59e7  3.71e7 1        F              1.27  WIDOWED        WHITE
 3   10000980  2.69e7  3.98e7 0        F              0.670 MARRIED        BLAC…
 4   10001217  2.46e7  3.71e7 0        F             -0.585 MARRIED        WHITE
 5   10001217  2.77e7  3.46e7 0        F             -0.585 MARRIED        WHITE
 6   10001725  2.56e7  3.12e7 0        F             -1.12  MARRIED        WHITE
 7   10001843  2.61e7  3.97e7 0        M              0.670 SINGLE         WHITE
 8   10001884  2.62e7  3.75e7 1        F              0.730 MARRIED        BLAC…
 9   10002013  2.36e7  3.91e7 0        F             -0.465 SINGLE         OTHER
10   10002114  2.78e7  3.47e7 1        M             -0.525 MARRIED        UNKN…
# ℹ 94,434 more rows
# ℹ 14 more variables: first_careunit <fct>, heart_rate <dbl>,
#   non_invasive_blood_pressure_systolic <dbl>,
#   non_invasive_blood_pressure_diastolic <dbl>, respiratory_rate <dbl>,
#   temperature_fahrenheit <dbl>, bicarbonate <dbl>, glucose <dbl>,
#   potassium <dbl>, sodium <dbl>, chloride <dbl>, creatinine <dbl>,
#   hematocrit <dbl>, wbc <dbl>
…
